{
	"info": {
		"_postman_id": "4e516eb0-ddf9-46ea-a2ac-339b8c1f97b6",
		"name": "survey",
		"schema": "https://schema.getpostman.com/json/collection/v2.1.0/collection.json"
	},
	"item": [
		{
			"name": "createQuestion",
			"request": {
				"method": "POST",
				"header": [
					{
						"key": "Content-Type",
						"name": "Content-Type",
						"value": "application/json",
						"type": "text"
					}
				],
				"body": {
					"mode": "raw",
					"raw": "{\n\t\"content\": \"Do you love football?\"\n}"
				},
				"url": {
					"raw": "http://localhost:8084/api/questions/",
					"protocol": "http",
					"host": [
						"localhost"
					],
					"port": "8084",
					"path": [
						"api",
						"questions",
						""
					]
				}
			},
			"response": []
		},
		{
			"name": "createAnswer",
			"request": {
				"method": "POST",
				"header": [
					{
						"key": "Content-Type",
						"name": "Content-Type",
						"type": "text",
						"value": "application/json"
					}
				],
				"body": {
					"mode": "raw",
					"raw": "{\n\t\"questionId\": \"b2f7dc7d-7cc0-46ee-be34-c01c8808e1da\",\n\t\"content\": \"I love it very much\"\n}"
				},
				"url": {
					"raw": "http://localhost:8085/api/answers/",
					"protocol": "http",
					"host": [
						"localhost"
					],
					"port": "8085",
					"path": [
						"api",
						"answers",
						""
					]
				}
			},
			"response": []
		},
		{
			"name": "updateQuestion",
			"request": {
				"method": "PUT",
				"header": [
					{
						"key": "Content-Type",
						"name": "Content-Type",
						"type": "text",
						"value": "application/json"
					}
				],
				"body": {
					"mode": "raw",
					"raw": "{\n\t\"id\": \"fa1c3e63-dc4c-4bcb-89c5-1365388ee3be\",\n\t\"content\": \"Thất tình có buồn không?\"\n}"
				},
				"url": {
					"raw": "http://localhost:8084/api/questions/b2f7dc7d-7cc0-46ee-be34-c01c8808e1da",
					"protocol": "http",
					"host": [
						"localhost"
					],
					"port": "8084",
					"path": [
						"api",
						"questions",
						"b2f7dc7d-7cc0-46ee-be34-c01c8808e1da"
					]
				}
			},
			"response": []
		},
		{
			"name": "updateAnswer",
			"request": {
				"method": "PUT",
				"header": [
					{
						"key": "Content-Type",
						"name": "Content-Type",
						"type": "text",
						"value": "application/json"
					}
				],
				"body": {
					"mode": "raw",
					"raw": "{\n\t\"id\": \"a8b3e8d5-477a-48e9-8b15-8cf2610ec65e\",\n\t\"questionId\": \"b2f7dc7d-7cc0-46ee-be34-c01c8808e1da\",\n\t\"content\": \"Cực kỳ buồn\"\n}"
				},
				"url": {
					"raw": "http://localhost:8085/api/answers/1b30cb05-a706-4df4-99f1-b4aff6c44753",
					"protocol": "http",
					"host": [
						"localhost"
					],
					"port": "8085",
					"path": [
						"api",
						"answers",
						"1b30cb05-a706-4df4-99f1-b4aff6c44753"
					]
				}
			},
			"response": []
		},
		{
			"name": "doOneSurvey",
			"request": {
				"method": "PUT",
				"header": [
					{
						"key": "Content-Type",
						"name": "Content-Type",
						"type": "text",
						"value": "application/json"
					}
				],
				"body": {
					"mode": "raw",
					"raw": "{\n\t\"questionId\": \"dc1afd58-4c51-420f-8809-4695859c984e\",\n\t\"selectAnswerRequests\": [{\"id\": \"17ef3c32-21d4-400f-a447-bd9daf694233\", \"selected\": true}, {\"id\": \"a8b3e8d5-477a-48e9-8b15-8cf2610ec65e\", \"selected\": false}]\n}"
				},
				"url": {
					"raw": "http://localhost:8086/api/surveys/questions/dc1afd58-4c51-420f-8809-4695859c984e",
					"protocol": "http",
					"host": [
						"localhost"
					],
					"port": "8086",
					"path": [
						"api",
						"surveys",
						"questions",
						"dc1afd58-4c51-420f-8809-4695859c984e"
					]
				}
			},
			"response": []
		},
		{
			"name": "deleteQuestion",
			"request": {
				"method": "DELETE",
				"header": [
					{
						"key": "Content-Type",
						"name": "Content-Type",
						"type": "text",
						"value": "application/json"
					}
				],
				"body": {
					"mode": "raw",
					"raw": "{\n\t\"id\": \"a80e714a-c11c-477a-9067-a022cd74e886\",\n\t\"content\": \"haha 2-edited\"\n}"
				},
				"url": {
					"raw": "http://localhost:8084/api/questions/9478f611-e1bb-4afa-af34-b1289c83a984",
					"protocol": "http",
					"host": [
						"localhost"
					],
					"port": "8084",
					"path": [
						"api",
						"questions",
						"9478f611-e1bb-4afa-af34-b1289c83a984"
					]
				}
			},
			"response": []
		},
		{
			"name": "findAllQuestions",
			"request": {
				"method": "GET",
				"header": [
					{
						"key": "Content-Type",
						"name": "Content-Type",
						"type": "text",
						"value": "application/json"
					}
				],
				"body": {
					"mode": "raw",
					"raw": "{\n\t\"content\": \"haha 2\"\n}"
				},
				"url": {
					"raw": "http://localhost:8084/api/questions/",
					"protocol": "http",
					"host": [
						"localhost"
					],
					"port": "8084",
					"path": [
						"api",
						"questions",
						""
					]
				}
			},
			"response": []
		},
		{
			"name": "findOneQuestion",
			"request": {
				"method": "GET",
				"header": [
					{
						"key": "Content-Type",
						"name": "Content-Type",
						"type": "text",
						"value": "application/json"
					}
				],
				"body": {
					"mode": "raw",
					"raw": "{\n\t\"content\": \"haha 2\"\n}"
				},
				"url": {
					"raw": "http://localhost:8084/api/questions/b2f7dc7d-7cc0-46ee-be34-c01c8808e1da",
					"protocol": "http",
					"host": [
						"localhost"
					],
					"port": "8084",
					"path": [
						"api",
						"questions",
						"b2f7dc7d-7cc0-46ee-be34-c01c8808e1da"
					]
				}
			},
			"response": []
		},
		{
			"name": "findQuestionWithAnswers",
			"request": {
				"method": "GET",
				"header": [
					{
						"key": "Content-Type",
						"name": "Content-Type",
						"type": "text",
						"value": "application/json"
					}
				],
				"body": {
					"mode": "raw",
					"raw": "{\n\t\"content\": \"haha 2\"\n}"
				},
				"url": {
					"raw": "http://localhost:8086/api/surveys/questions/b2f7dc7d-7cc0-46ee-be34-c01c8808e1da",
					"protocol": "http",
					"host": [
						"localhost"
					],
					"port": "8086",
					"path": [
						"api",
						"surveys",
						"questions",
						"b2f7dc7d-7cc0-46ee-be34-c01c8808e1da"
					]
				}
			},
			"response": []
		},
		{
			"name": "findStatisticsInOneQuestion",
			"request": {
				"method": "GET",
				"header": [
					{
						"key": "Content-Type",
						"name": "Content-Type",
						"type": "text",
						"value": "application/json"
					}
				],
				"body": {
					"mode": "raw",
					"raw": "{\n\t\"content\": \"haha 2\"\n}"
				},
				"url": {
					"raw": "http://localhost:8086/api/surveys/questions/b2f7dc7d-7cc0-46ee-be34-c01c8808e1de/statistics",
					"protocol": "http",
					"host": [
						"localhost"
					],
					"port": "8086",
					"path": [
						"api",
						"surveys",
						"questions",
						"b2f7dc7d-7cc0-46ee-be34-c01c8808e1de",
						"statistics"
					]
				}
			},
			"response": []
		},
		{
			"name": "findAllAnswersByQuestionId",
			"request": {
				"method": "GET",
				"header": [
					{
						"key": "Content-Type",
						"name": "Content-Type",
						"type": "text",
						"value": "application/json"
					}
				],
				"body": {
					"mode": "raw",
					"raw": "{\n\t\"content\": \"haha 2\"\n}"
				},
				"url": {
					"raw": "http://localhost:8085/api/answers/?questionId=b2f7dc7d-7cc0-46ee-be34-c01c8808e1da",
					"protocol": "http",
					"host": [
						"localhost"
					],
					"port": "8085",
					"path": [
						"api",
						"answers",
						""
					],
					"query": [
						{
							"key": "questionId",
							"value": "b2f7dc7d-7cc0-46ee-be34-c01c8808e1da"
						}
					]
				}
			},
			"response": []
		}
	]
}